Polygon methods
…
       count = c(2344L, 
                 4088L, 3247L, 2808L, 2046L, 1669L, 1315L, 951L, 610L, 543L, 469L, 
                 370L, 937L, 1116L, 550L, 379L, 282L, 204L, 174L, 160L, 136L, 
                 132L, 128L, 122L),
       term = c("aaa", "aaa", "aaa", "aaa", "aaa", 
                "aaa", "aaa", "aaa", "aaa", "aaa", "aaa", "aaa", "bbb", "bbb", 
                "bbb", "bbb", "bbb", "bbb", "bbb", "bbb", "bbb", "bbb", "bbb", 
                "bbb")),
  class = c("tbl_df", "tbl", "data.frame"),
  row.names = c(NA, 
                -24L),
  .Names = c("x", "count", "term"))
## have a look
aaa
#> # A tibble: 24 x 3
#>        x count term 
#>    <dbl> <int> <chr>
#>  1    28  2344 aaa  
#>  2    27  4088 aaa  
#>  3    26  3247 aaa  
#>  4    25  2808 aaa  
#>  5    24  2046 aaa  
#>  6    23  1669 aaa  
#>  7    22  1315 aaa  
#>  8    21   951 aaa  
#>  9    20   610 aaa  
#> 10    19   543 aaa  
#> #  with 14 more rows
…
